<svg width="30" height="30" viewBox="0 0 30 30" fill="none" xmlns="http://www.w3.org/2000/svg">
<circle cx="14.5524" cy="14.5524" r="14.5524" fill="#E1E1E1"/>
<path d="M15 20.5V14.5" stroke="#013CA0" stroke-width="4"/>
<path d="M21 20.5V7M9 20.5V10" stroke="#013CA0" stroke-width="4"/>
</svg>
