<svg width="184" height="175" viewBox="0 0 184 175" fill="none" xmlns="http://www.w3.org/2000/svg">
<ellipse opacity="0.3" cx="92" cy="87.5" rx="92" ry="87.5" fill="url(#paint0_radial_1366_683)"/>
<defs>
<radialGradient id="paint0_radial_1366_683" cx="0" cy="0" r="1" gradientUnits="userSpaceOnUse" gradientTransform="translate(96.3539 94.5946) rotate(42.8441) scale(308.612 258.709)">
<stop stop-color="#1C4699"/>
<stop offset="0.265237" stop-color="#1C4699" stop-opacity="0"/>
<stop offset="1" stop-color="#1C4699" stop-opacity="0"/>
</radialGradient>
</defs>
</svg>
