<svg width="629" height="592" viewBox="0 0 629 592" fill="none" xmlns="http://www.w3.org/2000/svg">
<path d="M424.181 1.4187H204.825C188.263 1.41991 171.993 5.93925 157.65 14.5226C143.307 23.1059 131.397 35.4508 123.116 50.3166L13.4382 247.183C5.15663 262.05 0.796875 278.914 0.796875 296.081C0.796875 313.248 5.15663 330.112 13.4382 344.979L123.116 541.873C131.397 556.739 143.307 569.083 157.65 577.667C171.993 586.25 188.263 590.769 204.825 590.771H424.181C440.743 590.769 457.013 586.25 471.356 577.667C485.699 569.083 497.609 556.739 505.89 541.873L615.568 344.979C623.849 330.112 628.209 313.248 628.209 296.081C628.209 278.914 623.849 262.05 615.568 247.183L505.89 50.2946C497.606 35.4329 485.695 23.0924 471.352 14.513C457.009 5.93369 440.741 1.41768 424.181 1.4187Z" stroke="#1C4699" stroke-width="2" stroke-linecap="round" stroke-linejoin="round"/>
</svg>
