<svg width="30" height="30" viewBox="0 0 30 30" fill="none" xmlns="http://www.w3.org/2000/svg">
<circle cx="14.5524" cy="14.5524" r="14.5524" fill="#E1E1E1"/>
<g clip-path="url(#clip0_984_861)">
<path d="M8.27832 13.5071L13.3509 20.411L21.9577 9.2415" stroke="#1C4699" stroke-width="2" stroke-miterlimit="10"/>
</g>
<defs>
<clipPath id="clip0_984_861">
<rect width="14.5524" height="12.3135" fill="white" transform="translate(7.83691 8.95549)"/>
</clipPath>
</defs>
</svg>
