<svg width="41" height="12" viewBox="0 0 41 12" fill="none" xmlns="http://www.w3.org/2000/svg">
<path d="M1 10.1909C4.10311 3.86587 8.91323 0.559163 14.461 1.29121C18.4255 1.81434 20.3592 5.54769 23.4273 7.806C29.378 12.186 36.8864 9.6722 40 1.81472" stroke="url(#paint0_linear_1353_488)" stroke-width="2" stroke-linecap="round"/>
<defs>
<linearGradient id="paint0_linear_1353_488" x1="1" y1="1.19092" x2="59.8679" y2="1.19092" gradientUnits="userSpaceOnUse">
<stop stop-color="#DEDEDE"/>
<stop offset="1" stop-color="#979797" stop-opacity="0"/>
</linearGradient>
</defs>
</svg>
