<svg width="928" height="854" viewBox="0 0 928 854" fill="none" xmlns="http://www.w3.org/2000/svg">
<g opacity="0.9" filter="url(#filter0_f_402_1046)">
<ellipse cx="464" cy="427" rx="264" ry="227" transform="rotate(-180 464 427)" fill="url(#paint0_linear_402_1046)"/>
<path d="M200.5 427C200.5 301.976 318.399 200.5 464 200.5C609.601 200.5 727.5 301.976 727.5 427C727.5 552.024 609.601 653.5 464 653.5C318.399 653.5 200.5 552.024 200.5 427Z" stroke="black"/>
</g>
<defs>
<filter id="filter0_f_402_1046" x="0" y="6.10352e-05" width="928" height="854" filterUnits="userSpaceOnUse" color-interpolation-filters="sRGB">
<feFlood flood-opacity="0" result="BackgroundImageFix"/>
<feBlend mode="normal" in="SourceGraphic" in2="BackgroundImageFix" result="shape"/>
<feGaussianBlur stdDeviation="100" result="effect1_foregroundBlur_402_1046"/>
</filter>
<linearGradient id="paint0_linear_402_1046" x1="-554.56" y1="1187.12" x2="368.852" y2="-37.1317" gradientUnits="userSpaceOnUse">
<stop stop-color="#1C4699"/>
<stop offset="1" stop-color="#1C4699" stop-opacity="0"/>
</linearGradient>
</defs>
</svg>
