<svg width="17" height="25" viewBox="0 0 17 25" fill="none" xmlns="http://www.w3.org/2000/svg">
<g clip-path="url(#clip0_402_765)">
<path d="M15.5874 8.22618C15.5874 4.3572 12.4534 1.22076 8.5874 1.22076C4.72141 1.22076 1.5874 4.3572 1.5874 8.22618V16.7504C1.5874 20.6193 4.72141 23.7558 8.5874 23.7558C12.4534 23.7558 15.5874 20.6193 15.5874 16.7504V8.22618Z" stroke="#F9F9F9" stroke-width="2" stroke-linecap="round" stroke-linejoin="round"/>
<path d="M8.5874 13.9579V17.877" stroke="#F9F9F9" stroke-width="2" stroke-linecap="round" stroke-linejoin="round"/>
</g>
<defs>
<clipPath id="clip0_402_765">
<rect width="16" height="24.4946" fill="white" transform="translate(0.587402 0.240967)"/>
</clipPath>
</defs>
</svg>
